[
  {
    "Author": "Georg Brandl",
    "Description": "Pygments is a syntax highlighting package written in Python.",
    "License": "BSD License",
    "LicenseFile": "/tmp/ci-IMbAKi3CtE/venv/lib/python3.8/site-packages/Pygments-2.6.1.dist-info/LICENSE",
    "LicenseText": "Copyright (c) 2006-2019 by the respective authors (see AUTHORS file).\nAll rights reserved.\n\nRedistribution and use in source and binary forms, with or without\nmodification, are permitted provided that the following conditions are\nmet:\n\n* Redistributions of source code must retain the above copyright\n  notice, this list of conditions and the following disclaimer.\n\n* Redistributions in binary form must reproduce the above copyright\n  notice, this list of conditions and the following disclaimer in the\n  documentation and/or other materials provided with the distribution.\n\nTHIS SOFTWARE IS PROVIDED BY THE COPYRIGHT HOLDERS AND CONTRIBUTORS\n\"AS IS\" AND ANY EXPRESS OR IMPLIED WARRANTIES, INCLUDING, BUT NOT\nLIMITED TO, THE IMPLIED WARRANTIES OF MERCHANTABILITY AND FITNESS FOR\nA PARTICULAR PURPOSE ARE DISCLAIMED. IN NO EVENT SHALL THE COPYRIGHT\nOWNER OR CONTRIBUTORS BE LIABLE FOR ANY DIRECT, INDIRECT, INCIDENTAL,\nSPECIAL, EXEMPLARY, OR CONSEQUENTIAL DAMAGES (INCLUDING, BUT NOT\nLIMITED TO, PROCUREMENT OF SUBSTITUTE GOODS OR SERVICES; LOSS OF USE,\nDATA, OR PROFITS; OR BUSINESS INTERRUPTION) HOWEVER CAUSED AND ON ANY\nTHEORY OF LIABILITY, WHETHER IN CONTRACT, STRICT LIABILITY, OR TORT\n(INCLUDING NEGLIGENCE OR OTHERWISE) ARISING IN ANY WAY OUT OF THE USE\nOF THIS SOFTWARE, EVEN IF ADVISED OF THE POSSIBILITY OF SUCH DAMAGE.\n",
    "Name": "Pygments",
    "URL": "https://pygments.org/",
    "Version": "2.6.1"
  },
  {
    "Author": "Oliver Schoenborn (aka \"schollii\")",
    "Description": "Python Publish-Subscribe Package",
    "License": "BSD License",
    "LicenseFile": "UNKNOWN",
    "LicenseText": "UNKNOWN",
    "Name": "Pypubsub",
    "URL": "https://github.com/schollii/pypubsub",
    "Version": "4.0.3"
  },
  {
    "Author": "Alex Gr\u00f6nholm",
    "Description": "High level compatibility layer for multiple asynchronous event loop implementations",
    "License": "MIT License",
    "LicenseFile": "/tmp/ci-IMbAKi3CtE/venv/lib/python3.8/site-packages/anyio-1.4.0.dist-info/LICENSE",
    "LicenseText": "This is the MIT license: http://www.opensource.org/licenses/mit-license.php\n\nCopyright (c) Alex Gr\u00f6nholm\n\nPermission is hereby granted, free of charge, to any person obtaining a copy of this\nsoftware and associated documentation files (the \"Software\"), to deal in the Software\nwithout restriction, including without limitation the rights to use, copy, modify, merge,\npublish, distribute, sublicense, and/or sell copies of the Software, and to permit persons\nto whom the Software is furnished to do so, subject to the following conditions:\n\nThe above copyright notice and this permission notice shall be included in all copies or\nsubstantial portions of the Software.\n\nTHE SOFTWARE IS PROVIDED \"AS IS\", WITHOUT WARRANTY OF ANY KIND, EXPRESS OR IMPLIED,\nINCLUDING BUT NOT LIMITED TO THE WARRANTIES OF MERCHANTABILITY, FITNESS FOR A PARTICULAR\nPURPOSE AND NONINFRINGEMENT. IN NO EVENT SHALL THE AUTHORS OR COPYRIGHT HOLDERS BE LIABLE\nFOR ANY CLAIM, DAMAGES OR OTHER LIABILITY, WHETHER IN AN ACTION OF CONTRACT, TORT OR\nOTHERWISE, ARISING FROM, OUT OF OR IN CONNECTION WITH THE SOFTWARE OR THE USE OR OTHER\nDEALINGS IN THE SOFTWARE.\n",
    "Name": "anyio",
    "URL": "UNKNOWN",
    "Version": "1.4.0"
  },
  {
    "Author": "Trent Mick",
    "Description": "A small Python module for determining appropriate platform-specific dirs, e.g. a \"user data dir\".",
    "License": "MIT License",
    "LicenseFile": "/tmp/ci-IMbAKi3CtE/venv/lib/python3.8/site-packages/appdirs-1.4.4.dist-info/LICENSE.txt",
    "LicenseText": "# This is the MIT license\n\nCopyright (c) 2010 ActiveState Software Inc.\n\nPermission is hereby granted, free of charge, to any person obtaining a\ncopy of this software and associated documentation files (the\n\"Software\"), to deal in the Software without restriction, including\nwithout limitation the rights to use, copy, modify, merge, publish,\ndistribute, sublicense, and/or sell copies of the Software, and to\npermit persons to whom the Software is furnished to do so, subject to\nthe following conditions:\n\nThe above copyright notice and this permission notice shall be included\nin all copies or substantial portions of the Software.\n\nTHE SOFTWARE IS PROVIDED \"AS IS\", WITHOUT WARRANTY OF ANY KIND, EXPRESS\nOR IMPLIED, INCLUDING BUT NOT LIMITED TO THE WARRANTIES OF\nMERCHANTABILITY, FITNESS FOR A PARTICULAR PURPOSE AND NONINFRINGEMENT.\nIN NO EVENT SHALL THE AUTHORS OR COPYRIGHT HOLDERS BE LIABLE FOR ANY\nCLAIM, DAMAGES OR OTHER LIABILITY, WHETHER IN AN ACTION OF CONTRACT,\nTORT OR OTHERWISE, ARISING FROM, OUT OF OR IN CONNECTION WITH THE\nSOFTWARE OR THE USE OR OTHER DEALINGS IN THE SOFTWARE.\n\n",
    "Name": "appdirs",
    "URL": "http://github.com/ActiveState/appdirs",
    "Version": "1.4.4"
  },
  {
    "Author": "Nathaniel J. Smith",
    "Description": "Async generators and context managers for Python 3.5+",
    "License": "MIT License, Apache Software License",
    "LicenseFile": "UNKNOWN",
    "LicenseText": "UNKNOWN",
    "Name": "async-generator",
    "URL": "https://github.com/python-trio/async_generator",
    "Version": "1.10"
  },
  {
    "Author": "Matthias Urlichs",
    "Description": "A simple anyio-compatible fork of Click, for powerful command line utilities.",
    "License": "BSD License",
    "LicenseFile": "/tmp/ci-IMbAKi3CtE/venv/lib/python3.8/site-packages/asyncclick-7.0.9.dist-info/LICENSE.rst",
    "LicenseText": "Copyright \u00a9 2014 by the Pallets team.\n\nSome rights reserved.\n\nRedistribution and use in source and binary forms of the software as\nwell as documentation, with or without modification, are permitted\nprovided that the following conditions are met:\n\n-   Redistributions of source code must retain the above copyright\n    notice, this list of conditions and the following disclaimer.\n\n-   Redistributions in binary form must reproduce the above copyright\n    notice, this list of conditions and the following disclaimer in the\n    documentation and/or other materials provided with the distribution.\n\n-   Neither the name of the copyright holder nor the names of its\n    contributors may be used to endorse or promote products derived from\n    this software without specific prior written permission.\n\nTHIS SOFTWARE AND DOCUMENTATION IS PROVIDED BY THE COPYRIGHT HOLDERS AND\nCONTRIBUTORS \"AS IS\" AND ANY EXPRESS OR IMPLIED WARRANTIES, INCLUDING,\nBUT NOT LIMITED TO, THE IMPLIED WARRANTIES OF MERCHANTABILITY AND\nFITNESS FOR A PARTICULAR PURPOSE ARE DISCLAIMED. IN NO EVENT SHALL THE\nCOPYRIGHT HOLDER OR CONTRIBUTORS BE LIABLE FOR ANY DIRECT, INDIRECT,\nINCIDENTAL, SPECIAL, EXEMPLARY, OR CONSEQUENTIAL DAMAGES (INCLUDING, BUT\nNOT LIMITED TO, PROCUREMENT OF SUBSTITUTE GOODS OR SERVICES; LOSS OF\nUSE, DATA, OR PROFITS; OR BUSINESS INTERRUPTION) HOWEVER CAUSED AND ON\nANY THEORY OF LIABILITY, WHETHER IN CONTRACT, STRICT LIABILITY, OR TORT\n(INCLUDING NEGLIGENCE OR OTHERWISE) ARISING IN ANY WAY OUT OF THE USE OF\nTHIS SOFTWARE AND DOCUMENTATION, EVEN IF ADVISED OF THE POSSIBILITY OF\nSUCH DAMAGE.\n\n----\n\nClick uses parts of optparse written by Gregory P. Ward and maintained\nby the Python Software Foundation. This is limited to code in parser.py.\n\nCopyright \u00a9 2001-2006 Gregory P. Ward. All rights reserved.\nCopyright \u00a9 2002-2006 Python Software Foundation. All rights reserved.\n",
    "Name": "asyncclick",
    "URL": "http://github.com/python-trio/asyncclick",
    "Version": "7.0.9"
  },
  {
    "Author": "Jonathan Hartley",
    "Description": "Cross-platform colored terminal text.",
    "License": "BSD License",
    "LicenseFile": "/tmp/ci-IMbAKi3CtE/venv/lib/python3.8/site-packages/colorama-0.4.3.dist-info/LICENSE.txt",
    "LicenseText": "Copyright (c) 2010 Jonathan Hartley\nAll rights reserved.\n\nRedistribution and use in source and binary forms, with or without\nmodification, are permitted provided that the following conditions are met:\n\n* Redistributions of source code must retain the above copyright notice, this\n  list of conditions and the following disclaimer.\n\n* Redistributions in binary form must reproduce the above copyright notice,\n  this list of conditions and the following disclaimer in the documentation\n  and/or other materials provided with the distribution.\n\n* Neither the name of the copyright holders, nor those of its contributors\n  may be used to endorse or promote products derived from this software without\n  specific prior written permission.\n\nTHIS SOFTWARE IS PROVIDED BY THE COPYRIGHT HOLDERS AND CONTRIBUTORS \"AS IS\" AND\nANY EXPRESS OR IMPLIED WARRANTIES, INCLUDING, BUT NOT LIMITED TO, THE IMPLIED\nWARRANTIES OF MERCHANTABILITY AND FITNESS FOR A PARTICULAR PURPOSE ARE\nDISCLAIMED. IN NO EVENT SHALL THE COPYRIGHT HOLDER OR CONTRIBUTORS BE LIABLE\nFOR ANY DIRECT, INDIRECT, INCIDENTAL, SPECIAL, EXEMPLARY, OR CONSEQUENTIAL\nDAMAGES (INCLUDING, BUT NOT LIMITED TO, PROCUREMENT OF SUBSTITUTE GOODS OR\nSERVICES; LOSS OF USE, DATA, OR PROFITS; OR BUSINESS INTERRUPTION) HOWEVER\nCAUSED AND ON ANY THEORY OF LIABILITY, WHETHER IN CONTRACT, STRICT LIABILITY,\nOR TORT (INCLUDING NEGLIGENCE OR OTHERWISE) ARISING IN ANY WAY OUT OF THE USE\nOF THIS SOFTWARE, EVEN IF ADVISED OF THE POSSIBILITY OF SUCH DAMAGE.\n",
    "Name": "colorama",
    "URL": "https://github.com/tartley/colorama",
    "Version": "0.4.3"
  },
  {
    "Author": "Bibek Kafle <bkafle662@gmail.com>, Roland Shoemaker <rolandshoemaker@gmail.com>",
    "Description": "Python parser for the CommonMark Markdown spec",
    "License": "BSD License",
    "LicenseFile": "/tmp/ci-IMbAKi3CtE/venv/lib/python3.8/site-packages/commonmark-0.9.1.dist-info/LICENSE",
    "LicenseText": "Copyright (c) 2014, Bibek Kafle and Roland Shoemaker\n\nBased on stmd.js: Copyright (c) 2014, John MacFarlane\n\nAll rights reserved.\n\nRedistribution and use in source and binary forms, with or without\nmodification, are permitted provided that the following conditions are met:\n\n    * Redistributions of source code must retain the above copyright\n      notice, this list of conditions and the following disclaimer.\n\n    * Redistributions in binary form must reproduce the above\n      copyright notice, this list of conditions and the following\n      disclaimer in the documentation and/or other materials provided\n      with the distribution.\n\n    * Neither the names of Bibek Kafle, Roland Shoemaker nor the names of other\n      contributors may be used to endorse or promote products derived\n      from this software without specific prior written permission.\n\nTHIS SOFTWARE IS PROVIDED BY THE COPYRIGHT HOLDERS AND CONTRIBUTORS\n\"AS IS\" AND ANY EXPRESS OR IMPLIED WARRANTIES, INCLUDING, BUT NOT\nLIMITED TO, THE IMPLIED WARRANTIES OF MERCHANTABILITY AND FITNESS FOR\nA PARTICULAR PURPOSE ARE DISCLAIMED. IN NO EVENT SHALL THE COPYRIGHT\nOWNER OR CONTRIBUTORS BE LIABLE FOR ANY DIRECT, INDIRECT, INCIDENTAL,\nSPECIAL, EXEMPLARY, OR CONSEQUENTIAL DAMAGES (INCLUDING, BUT NOT\nLIMITED TO, PROCUREMENT OF SUBSTITUTE GOODS OR SERVICES; LOSS OF USE,\nDATA, OR PROFITS; OR BUSINESS INTERRUPTION) HOWEVER CAUSED AND ON ANY\nTHEORY OF LIABILITY, WHETHER IN CONTRACT, STRICT LIABILITY, OR TORT\n(INCLUDING NEGLIGENCE OR OTHERWISE) ARISING IN ANY WAY OUT OF THE USE\nOF THIS SOFTWARE, EVEN IF ADVISED OF THE POSSIBILITY OF SUCH DAMAGE.",
    "Name": "commonmark",
    "URL": "https://github.com/rtfd/commonmark.py",
    "Version": "0.9.1"
  },
  {
    "Author": "Caleb Case, Andrew Kesterson",
    "Description": "Filesystem-like pathing and searching for dictionaries",
    "License": "MIT License",
    "LicenseFile": "UNKNOWN",
    "LicenseText": "UNKNOWN",
    "Name": "dpath",
    "URL": "https://www.github.com/akesterson/dpath-python",
    "Version": "2.0.1"
  },
  {
    "Author": "Miki Tebeka",
    "Description": "Fast read/write of AVRO files",
    "License": "MIT License",
    "LicenseFile": "/tmp/ci-IMbAKi3CtE/venv/lib/python3.8/site-packages/fastavro-0.23.6.dist-info/LICENSE",
    "LicenseText": "MIT License\n\nCopyright (c) 2011 Miki Tebeka\n\nPermission is hereby granted, free of charge, to any person obtaining a copy\nof this software and associated documentation files (the \"Software\"), to deal\nin the Software without restriction, including without limitation the rights\nto use, copy, modify, merge, publish, distribute, sublicense, and/or sell\ncopies of the Software, and to permit persons to whom the Software is\nfurnished to do so, subject to the following conditions:\n\nThe above copyright notice and this permission notice shall be included in all\ncopies or substantial portions of the Software.\n\nTHE SOFTWARE IS PROVIDED \"AS IS\", WITHOUT WARRANTY OF ANY KIND, EXPRESS OR\nIMPLIED, INCLUDING BUT NOT LIMITED TO THE WARRANTIES OF MERCHANTABILITY,\nFITNESS FOR A PARTICULAR PURPOSE AND NONINFRINGEMENT. IN NO EVENT SHALL THE\nAUTHORS OR COPYRIGHT HOLDERS BE LIABLE FOR ANY CLAIM, DAMAGES OR OTHER\nLIABILITY, WHETHER IN AN ACTION OF CONTRACT, TORT OR OTHERWISE, ARISING FROM,\nOUT OF OR IN CONNECTION WITH THE SOFTWARE OR THE USE OR OTHER DEALINGS IN THE\nSOFTWARE.\n",
    "Name": "fastavro",
    "URL": "https://github.com/fastavro/fastavro",
    "Version": "0.23.6"
  },
  {
    "Author": "Markus Binsteiner",
    "Description": "Library to manage arguments, incl. metadata.",
    "License": "\"The Parity Public License 6.0.0\"",
    "LicenseFile": "/tmp/ci-IMbAKi3CtE/venv/lib/python3.8/site-packages/frkl.args-0.1.dev24+g34297a0.dist-info/LICENSE",
    "LicenseText": "The Parity Public License 6.0.0\n\nContributor: Markus Binsteiner\n\nSource Code: https://gitlab.com/frkl/frkl.args\n\n\nThis license lets you use and share this software for free, as\nlong as you contribute software you make with it. Specifically:\n\nIf you follow the rules below, you may do everything with this\nsoftware that would otherwise infringe either the contributor's\ncopyright in it, any patent claim the contributor can license,\nor both.\n\n1. Contribute changes and additions you make to this software.\n\n2. If you combine this software with other software, contribute\n   that other software.\n\n3. Contribute software you develop, deploy, monitor, or run with\n   this software.\n\n4. Ensure everyone who gets a copy of this software from you, in\n   source code or any other form, gets the text of this license\n   and the contributor and source code lines above.\n\n5. Do not make any legal claim against anyone accusing this\n   software, with or without changes, alone or with other\n   software, of infringing any patent claim.\n\nTo contribute software, publish all its source code, in the\npreferred form for making changes, through a freely accessible\ndistribution system widely used for similar source code, and\nlicense contributions not already licensed to the public on terms\nas permissive as this license accordingly.\n\nYou are excused for unknowingly breaking 1, 2, or 3 if you\ncontribute as required, or stop doing anything requiring this\nlicense, within 30 days of learning you broke the rule.\n\n**As far as the law allows, this software comes as is, without\nany warranty, and the contributor will not be liable to anyone\nfor any damages related to this software or this license, for any\nkind of legal claim.**\n",
    "Name": "frkl.args",
    "URL": "https://gitlab.com/frkl/frkl_args",
    "Version": "0.1.dev24+g34297a0"
  },
  {
    "Author": "Markus Binsteiner",
    "Description": "Shared utilities and code for frkl projects.",
    "License": "\"The Parity Public License 6.0.0\"",
    "LicenseFile": "/tmp/ci-IMbAKi3CtE/venv/lib/python3.8/site-packages/frkl.common-0.1.dev68+g8a1cec3.dist-info/LICENSE",
    "LicenseText": "Copyright 2019-2020 Markus Binsteiner\n\nfrkl.common is licensed under the terms of 'The Parity Public License v7.0.0',\nor alternatively under the terms of the 'The Prosperity Public License 3.0.0'.\n\nYou may use frkl.common according to either of these licenses as is most\nappropriate for your project on a case-by-case basis. The terms of each license\ncan be found in the main directory of the frkl.common source repository:\n\nParity License: https://gitlab.com/frkl/frkl.common/LICENSE.PARITY\nProsperity License: https://gitlab.com/frkl/frkl.common/LICENSE.PROSPERITY\n",
    "Name": "frkl.common",
    "URL": "https://gitlab.com/frkl/frkl_common",
    "Version": "0.1.dev68+g8a1cec3"
  },
  {
    "Author": "Markus Binsteiner",
    "Description": "Manage and connect event sources and targets.",
    "License": "\"The Parity Public License 6.0.0\"",
    "LicenseFile": "/tmp/ci-IMbAKi3CtE/venv/lib/python3.8/site-packages/frkl.events-0.1.dev17+g0ebc035.d20200811.dist-info/LICENSE",
    "LicenseText": "Copyright 2019-2020 Markus Binsteiner\n\nfrkl.events is licensed under the terms of 'The Parity Public License v7.0.0',\nor alternatively under the terms of the 'The Prosperity Public License 3.0.0'.\n\nYou may use frkl.events according to either of these licenses as is most\nappropriate for your project on a case-by-case basis. The terms of each license\ncan be found in the main directory of the frkl.events source repository:\n\nParity License: https://gitlab.com/frkl/frkl.events/LICENSE.PARITY\nProsperity License: https://gitlab.com/frkl/frkl.events/LICENSE.PROSPERITY\n",
    "Name": "frkl.events",
    "URL": "https://gitlab.com/frkl/frkl_events",
    "Version": "0.1.dev17+g0ebc035.d20200811"
  },
  {
    "Author": "Markus Binsteiner",
    "Description": "Explain objects.",
    "License": "\"The Parity Public License 6.0.0\"",
    "LicenseFile": "/tmp/ci-IMbAKi3CtE/venv/lib/python3.8/site-packages/frkl.explain-0.1.dev29+g36bff87.dist-info/LICENSE",
    "LicenseText": "Copyright 2019-2020 Markus Binsteiner\n\nfrkl.explain is licensed under the terms of 'The Parity Public License v7.0.0',\nor alternatively under the terms of the 'The Prosperity Public License 3.0.0'.\n\nYou may use frkl.explain according to either of these licenses as is most\nappropriate for your project on a case-by-case basis. The terms of each license\ncan be found in the main directory of the frkl.explain source repository:\n\nParity License: https://gitlab.com/frkl/frkl.explain/LICENSE.PARITY\nProsperity License: https://gitlab.com/frkl/frkl.explain/LICENSE.PROSPERITY\n",
    "Name": "frkl.explain",
    "URL": "https://gitlab.com/frkl/frkl_explain",
    "Version": "0.1.dev29+g36bff87"
  },
  {
    "Author": "Markus Binsteiner",
    "Description": "Small utility framework to manage Python tasks, incl. metadata.",
    "License": "\"The Parity Public License 6.0.0\"",
    "LicenseFile": "/tmp/ci-IMbAKi3CtE/venv/lib/python3.8/site-packages/frkl.tasks-0.1.dev26+g0f3a31a.dist-info/LICENSE",
    "LicenseText": "The Parity Public License 6.0.0\n\nContributor: Markus Binsteiner\n\nSource Code: https://gitlab.com/frkl/frkl.tasks\n\n\nThis license lets you use and share this software for free, as\nlong as you contribute software you make with it. Specifically:\n\nIf you follow the rules below, you may do everything with this\nsoftware that would otherwise infringe either the contributor's\ncopyright in it, any patent claim the contributor can license,\nor both.\n\n1. Contribute changes and additions you make to this software.\n\n2. If you combine this software with other software, contribute\n   that other software.\n\n3. Contribute software you develop, deploy, monitor, or run with\n   this software.\n\n4. Ensure everyone who gets a copy of this software from you, in\n   source code or any other form, gets the text of this license\n   and the contributor and source code lines above.\n\n5. Do not make any legal claim against anyone accusing this\n   software, with or without changes, alone or with other\n   software, of infringing any patent claim.\n\nTo contribute software, publish all its source code, in the\npreferred form for making changes, through a freely accessible\ndistribution system widely used for similar source code, and\nlicense contributions not already licensed to the public on terms\nas permissive as this license accordingly.\n\nYou are excused for unknowingly breaking 1, 2, or 3 if you\ncontribute as required, or stop doing anything requiring this\nlicense, within 30 days of learning you broke the rule.\n\n**As far as the law allows, this software comes as is, without\nany warranty, and the contributor will not be liable to anyone\nfor any damages related to this software or this license, for any\nkind of legal claim.**\n",
    "Name": "frkl.tasks",
    "URL": "https://gitlab.com/frkl/frkl_tasks",
    "Version": "0.1.dev26+g0f3a31a"
  },
  {
    "Author": "Markus Binsteiner",
    "Description": "Types & arg helpers.",
    "License": "\"The Parity Public License 6.0.0\"",
    "LicenseFile": "/tmp/ci-IMbAKi3CtE/venv/lib/python3.8/site-packages/frkl.types-0.1.dev18+gd930abf.dist-info/LICENSE",
    "LicenseText": "Copyright 2019-2020 Markus Binsteiner\n\nfrkl.types is licensed under the terms of 'The Parity Public License v7.0.0',\nor alternatively under the terms of the 'The Prosperity Public License 3.0.0'.\n\nYou may use frkl.types according to either of these licenses as is most\nappropriate for your project on a case-by-case basis. The terms of each license\ncan be found in the main directory of the frkl.types source repository:\n\nParity License: https://gitlab.com/frkl/frkl.types/LICENSE.PARITY\nProsperity License: https://gitlab.com/frkl/frkl.types/LICENSE.PROSPERITY\n",
    "Name": "frkl.types",
    "URL": "https://gitlab.com/frkl/frkl_types",
    "Version": "0.1.dev18+gd930abf"
  },
  {
    "Author": "Ed Schofield",
    "Description": "Clean single-source support for Python 3 and 2",
    "License": "MIT License",
    "LicenseFile": "UNKNOWN",
    "LicenseText": "UNKNOWN",
    "Name": "future",
    "URL": "https://python-future.org",
    "Version": "0.18.2"
  },
  {
    "Author": "Kim Davies",
    "Description": "Internationalized Domain Names in Applications (IDNA)",
    "License": "BSD License",
    "LicenseFile": "/tmp/ci-IMbAKi3CtE/venv/lib/python3.8/site-packages/idna-2.10.dist-info/LICENSE.rst",
    "LicenseText": "License\n-------\n\nLicense: bsd-3-clause\n\nCopyright (c) 2013-2020, Kim Davies. All rights reserved.\n\nRedistribution and use in source and binary forms, with or without\nmodification, are permitted provided that the following conditions are met:\n\n#. Redistributions of source code must retain the above copyright\n   notice, this list of conditions and the following disclaimer.\n\n#. Redistributions in binary form must reproduce the above\n   copyright notice, this list of conditions and the following\n   disclaimer in the documentation and/or other materials provided with\n   the distribution.\n\n#. Neither the name of the copyright holder nor the names of the \n   contributors may be used to endorse or promote products derived \n   from this software without specific prior written permission.\n\n#. THIS SOFTWARE IS PROVIDED BY THE CONTRIBUTORS \"AS IS\" AND ANY\n   EXPRESS OR IMPLIED WARRANTIES, INCLUDING, BUT NOT LIMITED TO, THE\n   IMPLIED WARRANTIES OF MERCHANTABILITY AND FITNESS FOR A PARTICULAR\n   PURPOSE ARE DISCLAIMED. IN NO EVENT SHALL THE COPYRIGHT HOLDERS OR \n   CONTRIBUTORS BE LIABLE FOR ANY DIRECT, INDIRECT, INCIDENTAL, \n   SPECIAL, EXEMPLARY, OR CONSEQUENTIAL DAMAGES (INCLUDING, BUT NOT \n   LIMITED TO, PROCUREMENT OF SUBSTITUTE GOODS OR SERVICES; LOSS OF USE,\n   DATA, OR PROFITS; OR BUSINESS INTERRUPTION) HOWEVER CAUSED AND ON ANY\n   THEORY OF LIABILITY, WHETHER IN CONTRACT, STRICT LIABILITY, OR TORT\n   (INCLUDING NEGLIGENCE OR OTHERWISE) ARISING IN ANY WAY OUT OF THE\n   USE OF THIS SOFTWARE, EVEN IF ADVISED OF THE POSSIBILITY OF SUCH\n   DAMAGE.\n",
    "Name": "idna",
    "URL": "https://github.com/kjd/idna",
    "Version": "2.10"
  },
  {
    "Author": "Andrew Svetlov",
    "Description": "Mixed sync-async queue to interoperate between asyncio tasks and classic threads",
    "License": "Apache Software License",
    "LicenseFile": "/tmp/ci-IMbAKi3CtE/venv/lib/python3.8/site-packages/janus-0.5.0.dist-info/LICENSE",
    "LicenseText": "                                 Apache License\n                           Version 2.0, January 2004\n                        http://www.apache.org/licenses/\n\n   TERMS AND CONDITIONS FOR USE, REPRODUCTION, AND DISTRIBUTION\n\n   1. Definitions.\n\n      \"License\" shall mean the terms and conditions for use, reproduction,\n      and distribution as defined by Sections 1 through 9 of this document.\n\n      \"Licensor\" shall mean the copyright owner or entity authorized by\n      the copyright owner that is granting the License.\n\n      \"Legal Entity\" shall mean the union of the acting entity and all\n      other entities that control, are controlled by, or are under common\n      control with that entity. For the purposes of this definition,\n      \"control\" means (i) the power, direct or indirect, to cause the\n      direction or management of such entity, whether by contract or\n      otherwise, or (ii) ownership of fifty percent (50%) or more of the\n      outstanding shares, or (iii) beneficial ownership of such entity.\n\n      \"You\" (or \"Your\") shall mean an individual or Legal Entity\n      exercising permissions granted by this License.\n\n      \"Source\" form shall mean the preferred form for making modifications,\n      including but not limited to software source code, documentation\n      source, and configuration files.\n\n      \"Object\" form shall mean any form resulting from mechanical\n      transformation or translation of a Source form, including but\n      not limited to compiled object code, generated documentation,\n      and conversions to other media types.\n\n      \"Work\" shall mean the work of authorship, whether in Source or\n      Object form, made available under the License, as indicated by a\n      copyright notice that is included in or attached to the work\n      (an example is provided in the Appendix below).\n\n      \"Derivative Works\" shall mean any work, whether in Source or Object\n      form, that is based on (or derived from) the Work and for which the\n      editorial revisions, annotations, elaborations, or other modifications\n      represent, as a whole, an original work of authorship. For the purposes\n      of this License, Derivative Works shall not include works that remain\n      separable from, or merely link (or bind by name) to the interfaces of,\n      the Work and Derivative Works thereof.\n\n      \"Contribution\" shall mean any work of authorship, including\n      the original version of the Work and any modifications or additions\n      to that Work or Derivative Works thereof, that is intentionally\n      submitted to Licensor for inclusion in the Work by the copyright owner\n      or by an individual or Legal Entity authorized to submit on behalf of\n      the copyright owner. For the purposes of this definition, \"submitted\"\n      means any form of electronic, verbal, or written communication sent\n      to the Licensor or its representatives, including but not limited to\n      communication on electronic mailing lists, source code control systems,\n      and issue tracking systems that are managed by, or on behalf of, the\n      Licensor for the purpose of discussing and improving the Work, but\n      excluding communication that is conspicuously marked or otherwise\n      designated in writing by the copyright owner as \"Not a Contribution.\"\n\n      \"Contributor\" shall mean Licensor and any individual or Legal Entity\n      on behalf of whom a Contribution has been received by Licensor and\n      subsequently incorporated within the Work.\n\n   2. Grant of Copyright License. Subject to the terms and conditions of\n      this License, each Contributor hereby grants to You a perpetual,\n      worldwide, non-exclusive, no-charge, royalty-free, irrevocable\n      copyright license to reproduce, prepare Derivative Works of,\n      publicly display, publicly perform, sublicense, and distribute the\n      Work and such Derivative Works in Source or Object form.\n\n   3. Grant of Patent License. Subject to the terms and conditions of\n      this License, each Contributor hereby grants to You a perpetual,\n      worldwide, non-exclusive, no-charge, royalty-free, irrevocable\n      (except as stated in this section) patent license to make, have made,\n      use, offer to sell, sell, import, and otherwise transfer the Work,\n      where such license applies only to those patent claims licensable\n      by such Contributor that are necessarily infringed by their\n      Contribution(s) alone or by combination of their Contribution(s)\n      with the Work to which such Contribution(s) was submitted. If You\n      institute patent litigation against any entity (including a\n      cross-claim or counterclaim in a lawsuit) alleging that the Work\n      or a Contribution incorporated within the Work constitutes direct\n      or contributory patent infringement, then any patent licenses\n      granted to You under this License for that Work shall terminate\n      as of the date such litigation is filed.\n\n   4. Redistribution. You may reproduce and distribute copies of the\n      Work or Derivative Works thereof in any medium, with or without\n      modifications, and in Source or Object form, provided that You\n      meet the following conditions:\n\n      (a) You must give any other recipients of the Work or\n          Derivative Works a copy of this License; and\n\n      (b) You must cause any modified files to carry prominent notices\n          stating that You changed the files; and\n\n      (c) You must retain, in the Source form of any Derivative Works\n          that You distribute, all copyright, patent, trademark, and\n          attribution notices from the Source form of the Work,\n          excluding those notices that do not pertain to any part of\n          the Derivative Works; and\n\n      (d) If the Work includes a \"NOTICE\" text file as part of its\n          distribution, then any Derivative Works that You distribute must\n          include a readable copy of the attribution notices contained\n          within such NOTICE file, excluding those notices that do not\n          pertain to any part of the Derivative Works, in at least one\n          of the following places: within a NOTICE text file distributed\n          as part of the Derivative Works; within the Source form or\n          documentation, if provided along with the Derivative Works; or,\n          within a display generated by the Derivative Works, if and\n          wherever such third-party notices normally appear. The contents\n          of the NOTICE file are for informational purposes only and\n          do not modify the License. You may add Your own attribution\n          notices within Derivative Works that You distribute, alongside\n          or as an addendum to the NOTICE text from the Work, provided\n          that such additional attribution notices cannot be construed\n          as modifying the License.\n\n      You may add Your own copyright statement to Your modifications and\n      may provide additional or different license terms and conditions\n      for use, reproduction, or distribution of Your modifications, or\n      for any such Derivative Works as a whole, provided Your use,\n      reproduction, and distribution of the Work otherwise complies with\n      the conditions stated in this License.\n\n   5. Submission of Contributions. Unless You explicitly state otherwise,\n      any Contribution intentionally submitted for inclusion in the Work\n      by You to the Licensor shall be under the terms and conditions of\n      this License, without any additional terms or conditions.\n      Notwithstanding the above, nothing herein shall supersede or modify\n      the terms of any separate license agreement you may have executed\n      with Licensor regarding such Contributions.\n\n   6. Trademarks. This License does not grant permission to use the trade\n      names, trademarks, service marks, or product names of the Licensor,\n      except as required for reasonable and customary use in describing the\n      origin of the Work and reproducing the content of the NOTICE file.\n\n   7. Disclaimer of Warranty. Unless required by applicable law or\n      agreed to in writing, Licensor provides the Work (and each\n      Contributor provides its Contributions) on an \"AS IS\" BASIS,\n      WITHOUT WARRANTIES OR CONDITIONS OF ANY KIND, either express or\n      implied, including, without limitation, any warranties or conditions\n      of TITLE, NON-INFRINGEMENT, MERCHANTABILITY, or FITNESS FOR A\n      PARTICULAR PURPOSE. You are solely responsible for determining the\n      appropriateness of using or redistributing the Work and assume any\n      risks associated with Your exercise of permissions under this License.\n\n   8. Limitation of Liability. In no event and under no legal theory,\n      whether in tort (including negligence), contract, or otherwise,\n      unless required by applicable law (such as deliberate and grossly\n      negligent acts) or agreed to in writing, shall any Contributor be\n      liable to You for damages, including any direct, indirect, special,\n      incidental, or consequential damages of any character arising as a\n      result of this License or out of the use or inability to use the\n      Work (including but not limited to damages for loss of goodwill,\n      work stoppage, computer failure or malfunction, or any and all\n      other commercial damages or losses), even if such Contributor\n      has been advised of the possibility of such damages.\n\n   9. Accepting Warranty or Additional Liability. While redistributing\n      the Work or Derivative Works thereof, You may choose to offer,\n      and charge a fee for, acceptance of support, warranty, indemnity,\n      or other liability obligations and/or rights consistent with this\n      License. However, in accepting such obligations, You may act only\n      on Your own behalf and on Your sole responsibility, not on behalf\n      of any other Contributor, and only if You agree to indemnify,\n      defend, and hold each Contributor harmless for any liability\n      incurred by, or claims asserted against, such Contributor by reason\n      of your accepting any such warranty or additional liability.\n\n   END OF TERMS AND CONDITIONS\n\n   APPENDIX: How to apply the Apache License to your work.\n\n      To apply the Apache License to your work, attach the following\n      boilerplate notice, with the fields enclosed by brackets \"{}\"\n      replaced with your own identifying information. (Don't include\n      the brackets!)  The text should be enclosed in the appropriate\n      comment syntax for the file format. We also recommend that a\n      file or class name and description of purpose be included on the\n      same \"printed page\" as the copyright notice for easier\n      identification within third-party archives.\n\n   Copyright 2015-2018 Andrew Svetlov and aio-libs team\n\n   Licensed under the Apache License, Version 2.0 (the \"License\");\n   you may not use this file except in compliance with the License.\n   You may obtain a copy of the License at\n\n       http://www.apache.org/licenses/LICENSE-2.0\n\n   Unless required by applicable law or agreed to in writing, software\n   distributed under the License is distributed on an \"AS IS\" BASIS,\n   WITHOUT WARRANTIES OR CONDITIONS OF ANY KIND, either express or implied.\n   See the License for the specific language governing permissions and\n   limitations under the License.\n\n",
    "Name": "janus",
    "URL": "https://github.com/aio-libs/janus/",
    "Version": "0.5.0"
  },
  {
    "Author": "Stuart Bishop",
    "Description": "World timezone definitions, modern and historical",
    "License": "MIT License",
    "LicenseFile": "/tmp/ci-IMbAKi3CtE/venv/lib/python3.8/site-packages/pytz-2020.1.dist-info/LICENSE.txt",
    "LicenseText": "Copyright (c) 2003-2019 Stuart Bishop <stuart@stuartbishop.net>\n\nPermission is hereby granted, free of charge, to any person obtaining a\ncopy of this software and associated documentation files (the \"Software\"),\nto deal in the Software without restriction, including without limitation\nthe rights to use, copy, modify, merge, publish, distribute, sublicense,\nand/or sell copies of the Software, and to permit persons to whom the\nSoftware is furnished to do so, subject to the following conditions:\n\nThe above copyright notice and this permission notice shall be included in\nall copies or substantial portions of the Software.\n\nTHE SOFTWARE IS PROVIDED \"AS IS\", WITHOUT WARRANTY OF ANY KIND, EXPRESS OR\nIMPLIED, INCLUDING BUT NOT LIMITED TO THE WARRANTIES OF MERCHANTABILITY,\nFITNESS FOR A PARTICULAR PURPOSE AND NONINFRINGEMENT. IN NO EVENT SHALL\nTHE AUTHORS OR COPYRIGHT HOLDERS BE LIABLE FOR ANY CLAIM, DAMAGES OR OTHER\nLIABILITY, WHETHER IN AN ACTION OF CONTRACT, TORT OR OTHERWISE, ARISING\nFROM, OUT OF OR IN CONNECTION WITH THE SOFTWARE OR THE USE OR OTHER\nDEALINGS IN THE SOFTWARE.\n",
    "Name": "pytz",
    "URL": "http://pythonhosted.org/pytz",
    "Version": "2020.1"
  },
  {
    "Author": "Will McGugan",
    "Description": "Render rich text, tables, progress bars, syntax highlighting, markdown and more to the terminal",
    "License": "MIT License",
    "LicenseFile": "/tmp/ci-IMbAKi3CtE/venv/lib/python3.8/site-packages/rich-5.1.2.dist-info/LICENSE",
    "LicenseText": "Copyright 2020 Will McGugan\n\nPermission is hereby granted, free of charge, to any person obtaining a copy of this software and associated documentation files (the \"Software\"), to deal in the Software without restriction, including without limitation the rights to use, copy, modify, merge, publish, distribute, sublicense, and/or sell copies of the Software, and to permit persons to whom the Software is furnished to do so, subject to the following conditions:\n\nThe above copyright notice and this permission notice shall be included in all copies or substantial portions of the Software.\n\nTHE SOFTWARE IS PROVIDED \"AS IS\", WITHOUT WARRANTY OF ANY KIND, EXPRESS OR IMPLIED, INCLUDING BUT NOT LIMITED TO THE WARRANTIES OF MERCHANTABILITY, FITNESS FOR A PARTICULAR PURPOSE AND NONINFRINGEMENT. IN NO EVENT SHALL THE AUTHORS OR COPYRIGHT HOLDERS BE LIABLE FOR ANY CLAIM, DAMAGES OR OTHER LIABILITY, WHETHER IN AN ACTION OF CONTRACT, TORT OR OTHERWISE, ARISING FROM, OUT OF OR IN CONNECTION WITH THE SOFTWARE OR THE USE OR OTHER DEALINGS IN THE SOFTWARE.\n\n",
    "Name": "rich",
    "URL": "https://github.com/willmcgugan/rich",
    "Version": "5.1.2"
  },
  {
    "Author": "Anthon van der Neut",
    "Description": "ruamel.yaml is a YAML parser/emitter that supports roundtrip preservation of comments, seq/map flow style, and map key order",
    "License": "MIT License",
    "LicenseFile": "/tmp/ci-IMbAKi3CtE/venv/lib/python3.8/site-packages/ruamel.yaml-0.16.10.dist-info/LICENSE",
    "LicenseText": " The MIT License (MIT)\n\n Copyright (c) 2014-2020 Anthon van der Neut, Ruamel bvba\n\n Permission is hereby granted, free of charge, to any person obtaining a copy\n of this software and associated documentation files (the \"Software\"), to deal\n in the Software without restriction, including without limitation the rights\n to use, copy, modify, merge, publish, distribute, sublicense, and/or sell\n copies of the Software, and to permit persons to whom the Software is\n furnished to do so, subject to the following conditions:\n\n The above copyright notice and this permission notice shall be included in\n all copies or substantial portions of the Software.\n\n THE SOFTWARE IS PROVIDED \"AS IS\", WITHOUT WARRANTY OF ANY KIND, EXPRESS OR\n IMPLIED, INCLUDING BUT NOT LIMITED TO THE WARRANTIES OF MERCHANTABILITY,\n FITNESS FOR A PARTICULAR PURPOSE AND NONINFRINGEMENT. IN NO EVENT SHALL THE\n AUTHORS OR COPYRIGHT HOLDERS BE LIABLE FOR ANY CLAIM, DAMAGES OR OTHER\n LIABILITY, WHETHER IN AN ACTION OF CONTRACT, TORT OR OTHERWISE, ARISING FROM,\n OUT OF OR IN CONNECTION WITH THE SOFTWARE OR THE USE OR OTHER DEALINGS IN THE\n SOFTWARE.\n",
    "Name": "ruamel.yaml",
    "URL": "https://sourceforge.net/p/ruamel-yaml/code/ci/default/tree",
    "Version": "0.16.10"
  },
  {
    "Author": "Anthon van der Neut",
    "Description": "C version of reader, parser and emitter for ruamel.yaml derived from libyaml",
    "License": "MIT License",
    "LicenseFile": "/tmp/ci-IMbAKi3CtE/venv/lib/python3.8/site-packages/ruamel.yaml.clib-0.2.0.dist-info/LICENSE.txt",
    "LicenseText": " The MIT License (MIT)\n\n Copyright (c) 2019 Anthon van der Neut, Ruamel bvba\n\n Permission is hereby granted, free of charge, to any person obtaining a copy\n of this software and associated documentation files (the \"Software\"), to deal\n in the Software without restriction, including without limitation the rights\n to use, copy, modify, merge, publish, distribute, sublicense, and/or sell\n copies of the Software, and to permit persons to whom the Software is\n furnished to do so, subject to the following conditions:\n\n The above copyright notice and this permission notice shall be included in\n all copies or substantial portions of the Software.\n\n THE SOFTWARE IS PROVIDED \"AS IS\", WITHOUT WARRANTY OF ANY KIND, EXPRESS OR\n IMPLIED, INCLUDING BUT NOT LIMITED TO THE WARRANTIES OF MERCHANTABILITY,\n FITNESS FOR A PARTICULAR PURPOSE AND NONINFRINGEMENT. IN NO EVENT SHALL THE\n AUTHORS OR COPYRIGHT HOLDERS BE LIABLE FOR ANY CLAIM, DAMAGES OR OTHER\n LIABILITY, WHETHER IN AN ACTION OF CONTRACT, TORT OR OTHERWISE, ARISING FROM,\n OUT OF OR IN CONNECTION WITH THE SOFTWARE OR THE USE OR OTHER DEALINGS IN THE\n SOFTWARE.\n",
    "Name": "ruamel.yaml.clib",
    "URL": "https://bitbucket.org/ruamel/yaml.clib",
    "Version": "0.2.0"
  },
  {
    "Author": "Nathaniel J. Smith",
    "Description": "Sniff out which async library your code is running under",
    "License": "MIT License, Apache Software License",
    "LicenseFile": "UNKNOWN",
    "LicenseText": "UNKNOWN",
    "Name": "sniffio",
    "URL": "https://github.com/python-trio/sniffio",
    "Version": "1.1.0"
  },
  {
    "Author": "William Pearson",
    "Description": "Python Library for Tom's Obvious, Minimal Language",
    "License": "MIT License",
    "LicenseFile": "/tmp/ci-IMbAKi3CtE/venv/lib/python3.8/site-packages/toml-0.10.1.dist-info/LICENSE.txt",
    "LicenseText": "The MIT License\n\nCopyright 2013-2019 William Pearson\nCopyright 2015-2016 Julien Enselme\nCopyright 2016 Google Inc.\nCopyright 2017 Samuel Vasko\nCopyright 2017 Nate Prewitt\nCopyright 2017 Jack Evans\nCopyright 2019 Filippo Broggini\n\nPermission is hereby granted, free of charge, to any person obtaining a copy\nof this software and associated documentation files (the \"Software\"), to deal\nin the Software without restriction, including without limitation the rights\nto use, copy, modify, merge, publish, distribute, sublicense, and/or sell\ncopies of the Software, and to permit persons to whom the Software is\nfurnished to do so, subject to the following conditions:\n\nThe above copyright notice and this permission notice shall be included in\nall copies or substantial portions of the Software.\n\nTHE SOFTWARE IS PROVIDED \"AS IS\", WITHOUT WARRANTY OF ANY KIND, EXPRESS OR\nIMPLIED, INCLUDING BUT NOT LIMITED TO THE WARRANTIES OF MERCHANTABILITY,\nFITNESS FOR A PARTICULAR PURPOSE AND NONINFRINGEMENT. IN NO EVENT SHALL THE\nAUTHORS OR COPYRIGHT HOLDERS BE LIABLE FOR ANY CLAIM, DAMAGES OR OTHER\nLIABILITY, WHETHER IN AN ACTION OF CONTRACT, TORT OR OTHERWISE, ARISING FROM,\nOUT OF OR IN CONNECTION WITH THE SOFTWARE OR THE USE OR OTHER DEALINGS IN\nTHE SOFTWARE.",
    "Name": "toml",
    "URL": "https://github.com/uiri/toml",
    "Version": "0.10.1"
  },
  {
    "Author": "Xiaming Chen",
    "Description": "A Python 2/3 implementation of tree structure.",
    "License": "Apache Software License",
    "LicenseFile": "/tmp/ci-IMbAKi3CtE/venv/lib/python3.8/site-packages/treelib-1.6.1.dist-info/LICENSE",
    "LicenseText": "treelib - Simple to use for you.\nPython 2/3 Tree Implementation\n\nCopyright (C) 2011\n    Brett Alistair Kromkamp - brettkromkamp@gmail.com\nCopyright (C) 2012-2017\n    Xiaming Chen - chenxm35@gmail.com\n    and other contributors.\nAll rights reserved.\n\nLicensed under the Apache License, Version 2.0 (the \"License\");\nyou may not use this file except in compliance with the License.\nYou may obtain a copy of the License at\n\n    http://www.apache.org/licenses/LICENSE-2.0\n\nUnless required by applicable law or agreed to in writing, software\ndistributed under the License is distributed on an \"AS IS\" BASIS,\nWITHOUT WARRANTIES OR CONDITIONS OF ANY KIND, either express or implied.\nSee the License for the specific language governing permissions and\nlimitations under the License.",
    "Name": "treelib",
    "URL": "https://github.com/caesar0301/treelib",
    "Version": "1.6.1"
  },
  {
    "Author": "Guido van Rossum, Jukka Lehtosalo, Lukasz Langa, Michael Lee",
    "Description": "Backported and Experimental Type Hints for Python 3.5+",
    "License": "Python Software Foundation License",
    "LicenseFile": "/tmp/ci-IMbAKi3CtE/venv/lib/python3.8/site-packages/typing_extensions-3.7.4.2.dist-info/LICENSE",
    "LicenseText": "A. HISTORY OF THE SOFTWARE\n==========================\n\nPython was created in the early 1990s by Guido van Rossum at Stichting\nMathematisch Centrum (CWI, see http://www.cwi.nl) in the Netherlands\nas a successor of a language called ABC.  Guido remains Python's\nprincipal author, although it includes many contributions from others.\n\nIn 1995, Guido continued his work on Python at the Corporation for\nNational Research Initiatives (CNRI, see http://www.cnri.reston.va.us)\nin Reston, Virginia where he released several versions of the\nsoftware.\n\nIn May 2000, Guido and the Python core development team moved to\nBeOpen.com to form the BeOpen PythonLabs team.  In October of the same\nyear, the PythonLabs team moved to Digital Creations (now Zope\nCorporation, see http://www.zope.com).  In 2001, the Python Software\nFoundation (PSF, see http://www.python.org/psf/) was formed, a\nnon-profit organization created specifically to own Python-related\nIntellectual Property.  Zope Corporation is a sponsoring member of\nthe PSF.\n\nAll Python releases are Open Source (see http://www.opensource.org for\nthe Open Source Definition).  Historically, most, but not all, Python\nreleases have also been GPL-compatible; the table below summarizes\nthe various releases.\n\n    Release         Derived     Year        Owner       GPL-\n                    from                                compatible? (1)\n\n    0.9.0 thru 1.2              1991-1995   CWI         yes\n    1.3 thru 1.5.2  1.2         1995-1999   CNRI        yes\n    1.6             1.5.2       2000        CNRI        no\n    2.0             1.6         2000        BeOpen.com  no\n    1.6.1           1.6         2001        CNRI        yes (2)\n    2.1             2.0+1.6.1   2001        PSF         no\n    2.0.1           2.0+1.6.1   2001        PSF         yes\n    2.1.1           2.1+2.0.1   2001        PSF         yes\n    2.1.2           2.1.1       2002        PSF         yes\n    2.1.3           2.1.2       2002        PSF         yes\n    2.2 and above   2.1.1       2001-now    PSF         yes\n\nFootnotes:\n\n(1) GPL-compatible doesn't mean that we're distributing Python under\n    the GPL.  All Python licenses, unlike the GPL, let you distribute\n    a modified version without making your changes open source.  The\n    GPL-compatible licenses make it possible to combine Python with\n    other software that is released under the GPL; the others don't.\n\n(2) According to Richard Stallman, 1.6.1 is not GPL-compatible,\n    because its license has a choice of law clause.  According to\n    CNRI, however, Stallman's lawyer has told CNRI's lawyer that 1.6.1\n    is \"not incompatible\" with the GPL.\n\nThanks to the many outside volunteers who have worked under Guido's\ndirection to make these releases possible.\n\n\nB. TERMS AND CONDITIONS FOR ACCESSING OR OTHERWISE USING PYTHON\n===============================================================\n\nPYTHON SOFTWARE FOUNDATION LICENSE VERSION 2\n--------------------------------------------\n\n1. This LICENSE AGREEMENT is between the Python Software Foundation\n(\"PSF\"), and the Individual or Organization (\"Licensee\") accessing and\notherwise using this software (\"Python\") in source or binary form and\nits associated documentation.\n\n2. Subject to the terms and conditions of this License Agreement, PSF hereby\ngrants Licensee a nonexclusive, royalty-free, world-wide license to reproduce,\nanalyze, test, perform and/or display publicly, prepare derivative works,\ndistribute, and otherwise use Python alone or in any derivative version,\nprovided, however, that PSF's License Agreement and PSF's notice of copyright,\ni.e., \"Copyright (c) 2001, 2002, 2003, 2004, 2005, 2006, 2007, 2008, 2009, 2010,\n2011, 2012, 2013, 2014 Python Software Foundation; All Rights Reserved\" are\nretained in Python alone or in any derivative version prepared by Licensee.\n\n3. In the event Licensee prepares a derivative work that is based on\nor incorporates Python or any part thereof, and wants to make\nthe derivative work available to others as provided herein, then\nLicensee hereby agrees to include in any such work a brief summary of\nthe changes made to Python.\n\n4. PSF is making Python available to Licensee on an \"AS IS\"\nbasis.  PSF MAKES NO REPRESENTATIONS OR WARRANTIES, EXPRESS OR\nIMPLIED.  BY WAY OF EXAMPLE, BUT NOT LIMITATION, PSF MAKES NO AND\nDISCLAIMS ANY REPRESENTATION OR WARRANTY OF MERCHANTABILITY OR FITNESS\nFOR ANY PARTICULAR PURPOSE OR THAT THE USE OF PYTHON WILL NOT\nINFRINGE ANY THIRD PARTY RIGHTS.\n\n5. PSF SHALL NOT BE LIABLE TO LICENSEE OR ANY OTHER USERS OF PYTHON\nFOR ANY INCIDENTAL, SPECIAL, OR CONSEQUENTIAL DAMAGES OR LOSS AS\nA RESULT OF MODIFYING, DISTRIBUTING, OR OTHERWISE USING PYTHON,\nOR ANY DERIVATIVE THEREOF, EVEN IF ADVISED OF THE POSSIBILITY THEREOF.\n\n6. This License Agreement will automatically terminate upon a material\nbreach of its terms and conditions.\n\n7. Nothing in this License Agreement shall be deemed to create any\nrelationship of agency, partnership, or joint venture between PSF and\nLicensee.  This License Agreement does not grant permission to use PSF\ntrademarks or trade name in a trademark sense to endorse or promote\nproducts or services of Licensee, or any third party.\n\n8. By copying, installing or otherwise using Python, Licensee\nagrees to be bound by the terms and conditions of this License\nAgreement.\n\n\nBEOPEN.COM LICENSE AGREEMENT FOR PYTHON 2.0\n-------------------------------------------\n\nBEOPEN PYTHON OPEN SOURCE LICENSE AGREEMENT VERSION 1\n\n1. This LICENSE AGREEMENT is between BeOpen.com (\"BeOpen\"), having an\noffice at 160 Saratoga Avenue, Santa Clara, CA 95051, and the\nIndividual or Organization (\"Licensee\") accessing and otherwise using\nthis software in source or binary form and its associated\ndocumentation (\"the Software\").\n\n2. Subject to the terms and conditions of this BeOpen Python License\nAgreement, BeOpen hereby grants Licensee a non-exclusive,\nroyalty-free, world-wide license to reproduce, analyze, test, perform\nand/or display publicly, prepare derivative works, distribute, and\notherwise use the Software alone or in any derivative version,\nprovided, however, that the BeOpen Python License is retained in the\nSoftware, alone or in any derivative version prepared by Licensee.\n\n3. BeOpen is making the Software available to Licensee on an \"AS IS\"\nbasis.  BEOPEN MAKES NO REPRESENTATIONS OR WARRANTIES, EXPRESS OR\nIMPLIED.  BY WAY OF EXAMPLE, BUT NOT LIMITATION, BEOPEN MAKES NO AND\nDISCLAIMS ANY REPRESENTATION OR WARRANTY OF MERCHANTABILITY OR FITNESS\nFOR ANY PARTICULAR PURPOSE OR THAT THE USE OF THE SOFTWARE WILL NOT\nINFRINGE ANY THIRD PARTY RIGHTS.\n\n4. BEOPEN SHALL NOT BE LIABLE TO LICENSEE OR ANY OTHER USERS OF THE\nSOFTWARE FOR ANY INCIDENTAL, SPECIAL, OR CONSEQUENTIAL DAMAGES OR LOSS\nAS A RESULT OF USING, MODIFYING OR DISTRIBUTING THE SOFTWARE, OR ANY\nDERIVATIVE THEREOF, EVEN IF ADVISED OF THE POSSIBILITY THEREOF.\n\n5. This License Agreement will automatically terminate upon a material\nbreach of its terms and conditions.\n\n6. This License Agreement shall be governed by and interpreted in all\nrespects by the law of the State of California, excluding conflict of\nlaw provisions.  Nothing in this License Agreement shall be deemed to\ncreate any relationship of agency, partnership, or joint venture\nbetween BeOpen and Licensee.  This License Agreement does not grant\npermission to use BeOpen trademarks or trade names in a trademark\nsense to endorse or promote products or services of Licensee, or any\nthird party.  As an exception, the \"BeOpen Python\" logos available at\nhttp://www.pythonlabs.com/logos.html may be used according to the\npermissions granted on that web page.\n\n7. By copying, installing or otherwise using the software, Licensee\nagrees to be bound by the terms and conditions of this License\nAgreement.\n\n\nCNRI LICENSE AGREEMENT FOR PYTHON 1.6.1\n---------------------------------------\n\n1. This LICENSE AGREEMENT is between the Corporation for National\nResearch Initiatives, having an office at 1895 Preston White Drive,\nReston, VA 20191 (\"CNRI\"), and the Individual or Organization\n(\"Licensee\") accessing and otherwise using Python 1.6.1 software in\nsource or binary form and its associated documentation.\n\n2. Subject to the terms and conditions of this License Agreement, CNRI\nhereby grants Licensee a nonexclusive, royalty-free, world-wide\nlicense to reproduce, analyze, test, perform and/or display publicly,\nprepare derivative works, distribute, and otherwise use Python 1.6.1\nalone or in any derivative version, provided, however, that CNRI's\nLicense Agreement and CNRI's notice of copyright, i.e., \"Copyright (c)\n1995-2001 Corporation for National Research Initiatives; All Rights\nReserved\" are retained in Python 1.6.1 alone or in any derivative\nversion prepared by Licensee.  Alternately, in lieu of CNRI's License\nAgreement, Licensee may substitute the following text (omitting the\nquotes): \"Python 1.6.1 is made available subject to the terms and\nconditions in CNRI's License Agreement.  This Agreement together with\nPython 1.6.1 may be located on the Internet using the following\nunique, persistent identifier (known as a handle): 1895.22/1013.  This\nAgreement may also be obtained from a proxy server on the Internet\nusing the following URL: http://hdl.handle.net/1895.22/1013\".\n\n3. In the event Licensee prepares a derivative work that is based on\nor incorporates Python 1.6.1 or any part thereof, and wants to make\nthe derivative work available to others as provided herein, then\nLicensee hereby agrees to include in any such work a brief summary of\nthe changes made to Python 1.6.1.\n\n4. CNRI is making Python 1.6.1 available to Licensee on an \"AS IS\"\nbasis.  CNRI MAKES NO REPRESENTATIONS OR WARRANTIES, EXPRESS OR\nIMPLIED.  BY WAY OF EXAMPLE, BUT NOT LIMITATION, CNRI MAKES NO AND\nDISCLAIMS ANY REPRESENTATION OR WARRANTY OF MERCHANTABILITY OR FITNESS\nFOR ANY PARTICULAR PURPOSE OR THAT THE USE OF PYTHON 1.6.1 WILL NOT\nINFRINGE ANY THIRD PARTY RIGHTS.\n\n5. CNRI SHALL NOT BE LIABLE TO LICENSEE OR ANY OTHER USERS OF PYTHON\n1.6.1 FOR ANY INCIDENTAL, SPECIAL, OR CONSEQUENTIAL DAMAGES OR LOSS AS\nA RESULT OF MODIFYING, DISTRIBUTING, OR OTHERWISE USING PYTHON 1.6.1,\nOR ANY DERIVATIVE THEREOF, EVEN IF ADVISED OF THE POSSIBILITY THEREOF.\n\n6. This License Agreement will automatically terminate upon a material\nbreach of its terms and conditions.\n\n7. This License Agreement shall be governed by the federal\nintellectual property law of the United States, including without\nlimitation the federal copyright law, and, to the extent such\nU.S. federal law does not apply, by the law of the Commonwealth of\nVirginia, excluding Virginia's conflict of law provisions.\nNotwithstanding the foregoing, with regard to derivative works based\non Python 1.6.1 that incorporate non-separable material that was\npreviously distributed under the GNU General Public License (GPL), the\nlaw of the Commonwealth of Virginia shall govern this License\nAgreement only as to issues arising under or with respect to\nParagraphs 4, 5, and 7 of this License Agreement.  Nothing in this\nLicense Agreement shall be deemed to create any relationship of\nagency, partnership, or joint venture between CNRI and Licensee.  This\nLicense Agreement does not grant permission to use CNRI trademarks or\ntrade name in a trademark sense to endorse or promote products or\nservices of Licensee, or any third party.\n\n8. By clicking on the \"ACCEPT\" button where indicated, or by copying,\ninstalling or otherwise using Python 1.6.1, Licensee agrees to be\nbound by the terms and conditions of this License Agreement.\n\n        ACCEPT\n\n\nCWI LICENSE AGREEMENT FOR PYTHON 0.9.0 THROUGH 1.2\n--------------------------------------------------\n\nCopyright (c) 1991 - 1995, Stichting Mathematisch Centrum Amsterdam,\nThe Netherlands.  All rights reserved.\n\nPermission to use, copy, modify, and distribute this software and its\ndocumentation for any purpose and without fee is hereby granted,\nprovided that the above copyright notice appear in all copies and that\nboth that copyright notice and this permission notice appear in\nsupporting documentation, and that the name of Stichting Mathematisch\nCentrum or CWI not be used in advertising or publicity pertaining to\ndistribution of the software without specific, written prior\npermission.\n\nSTICHTING MATHEMATISCH CENTRUM DISCLAIMS ALL WARRANTIES WITH REGARD TO\nTHIS SOFTWARE, INCLUDING ALL IMPLIED WARRANTIES OF MERCHANTABILITY AND\nFITNESS, IN NO EVENT SHALL STICHTING MATHEMATISCH CENTRUM BE LIABLE\nFOR ANY SPECIAL, INDIRECT OR CONSEQUENTIAL DAMAGES OR ANY DAMAGES\nWHATSOEVER RESULTING FROM LOSS OF USE, DATA OR PROFITS, WHETHER IN AN\nACTION OF CONTRACT, NEGLIGENCE OR OTHER TORTIOUS ACTION, ARISING OUT\nOF OR IN CONNECTION WITH THE USE OR PERFORMANCE OF THIS SOFTWARE.\n",
    "Name": "typing-extensions",
    "URL": "https://github.com/python/typing/blob/master/typing_extensions/README.rst",
    "Version": "3.7.4.2"
  },
  {
    "Author": "Lennart Regebro",
    "Description": "tzinfo object for the local timezone",
    "License": "MIT License",
    "LicenseFile": "/tmp/ci-IMbAKi3CtE/venv/lib/python3.8/site-packages/tzlocal-2.1.dist-info/LICENSE.txt",
    "LicenseText": "Copyright 2011-2017 Lennart Regebro\n\nPermission is hereby granted, free of charge, to any person obtaining a copy\nof this software and associated documentation files (the \"Software\"), to deal\nin the Software without restriction, including without limitation the rights\nto use, copy, modify, merge, publish, distribute, sublicense, and/or sell\ncopies of the Software, and to permit persons to whom the Software is\nfurnished to do so, subject to the following conditions:\n\nThe above copyright notice and this permission notice shall be included in\nall copies or substantial portions of the Software.\n\nTHE SOFTWARE IS PROVIDED \"AS IS\", WITHOUT WARRANTY OF ANY KIND, EXPRESS OR\nIMPLIED, INCLUDING BUT NOT LIMITED TO THE WARRANTIES OF MERCHANTABILITY,\nFITNESS FOR A PARTICULAR PURPOSE AND NONINFRINGEMENT. IN NO EVENT SHALL THE\nAUTHORS OR COPYRIGHT HOLDERS BE LIABLE FOR ANY CLAIM, DAMAGES OR OTHER\nLIABILITY, WHETHER IN AN ACTION OF CONTRACT, TORT OR OTHERWISE, ARISING FROM,\nOUT OF OR IN CONNECTION WITH THE SOFTWARE OR THE USE OR OTHER DEALINGS IN THE\nSOFTWARE.\n",
    "Name": "tzlocal",
    "URL": "https://github.com/regebro/tzlocal",
    "Version": "2.1"
  },
  {
    "Author": "Yury Selivanov",
    "Description": "Fast implementation of asyncio event loop on top of libuv",
    "License": "Apache Software License, MIT License",
    "LicenseFile": "UNKNOWN",
    "LicenseText": "UNKNOWN",
    "Name": "uvloop",
    "URL": "http://github.com/MagicStack/uvloop",
    "Version": "0.14.0"
  }
]
